[0] Config.pm:302> INFO - This is Biber 2.9
[0] Config.pm:305> INFO - Logfile is 'Antonov_paper.blg'
[44] biber:313> INFO - === Чт мая 30, 2019, 14:38:04
[73] Biber.pm:371> INFO - Reading 'Antonov_paper.bcf'
[175] Biber.pm:857> INFO - Found 6 citekeys in bib section 0
[198] Biber.pm:3981> INFO - Processing section 0
[219] Biber.pm:4154> INFO - Looking for bibtex format file 'ref.bib' for section 0
[220] bibtex.pm:1468> INFO - LaTeX decoding ...
[233] bibtex.pm:1294> INFO - Found BibTeX data source 'ref.bib'
[293] UCollate.pm:68> INFO - Overriding locale 'ru-RU' defaults 'normalization = NFD' with 'normalization = prenormalized'
[293] UCollate.pm:68> INFO - Overriding locale 'ru-RU' defaults 'variable = shifted' with 'variable = non-ignorable'
[293] Biber.pm:3809> INFO - Sorting list 'nty/global//global/global' of type 'entry' with template 'nty' and locale 'ru-RU'
[293] Biber.pm:3815> INFO - No sort tailoring available for locale 'ru-RU'
[303] bbl.pm:617> INFO - Writing 'Antonov_paper.bbl' with encoding 'UTF-8'
[306] bbl.pm:720> INFO - Output to Antonov_paper.bbl
